<?xml version="1.0" encoding="UTF-8" standalone="no"?>
<svg width="50px" height="50px" viewBox="0 0 50 50" version="1.1" xmlns="http://www.w3.org/2000/svg" xmlns:xlink="http://www.w3.org/1999/xlink">
    <!-- Generator: Sketch 39.1 (31720) - http://www.bohemiancoding.com/sketch -->
    <title>icon-2</title>
    <desc>Created with Sketch.</desc>
    <defs></defs>
    <g id="Resources" stroke="none" stroke-width="1" fill="none" fill-rule="evenodd">
        <g id="icon-2">
            <circle id="Oval-3" fill="#004D9B" cx="25" cy="25" r="25"></circle>
            <rect id="Rectangle" fill="#FFFFFF" x="15" y="15" width="20" height="20"></rect>
        </g>
    </g>
</svg>