<?xml version="1.0" encoding="UTF-8" standalone="no"?>
<svg width="38px" height="52px" viewBox="0 0 38 52" version="1.1" xmlns="http://www.w3.org/2000/svg" xmlns:xlink="http://www.w3.org/1999/xlink">
    <!-- Generator: Sketch 39.1 (31720) - http://www.bohemiancoding.com/sketch -->
    <title>marker</title>
    <desc>Created with Sketch.</desc>
    <defs></defs>
    <g id="Resources" stroke="none" stroke-width="1" fill="none" fill-rule="evenodd">
        <g id="marker">
            <g id="Group">
                <path d="M2.31700231,28.1002123 C3.94851905,31.0848616 19,51.0312424 19,51.0312424 C19,51.0312424 34.1236568,30.9751042 35.7123453,28.0463175 C37.1713771,25.3565563 38,22.2750458 38,19 C38,8.50658975 29.4934102,0 19,0 C8.50658975,0 0,8.50658975 0,19 C0,22.2969412 0.839739489,25.3977506 2.31700231,28.1002123 Z" id="Combined-Shape" fill="#004D9B"></path>
                <circle id="Oval-2" fill="#FFFFFF" cx="19" cy="19" r="8"></circle>
            </g>
        </g>
    </g>
</svg>