<?xml version="1.0" encoding="UTF-8" standalone="no"?>
<svg width="35px" height="35px" viewBox="0 0 35 35" version="1.1" xmlns="http://www.w3.org/2000/svg" xmlns:xlink="http://www.w3.org/1999/xlink">
    <!-- Generator: Sketch 39 (31667) - http://www.bohemiancoding.com/sketch -->
    <title>pin_officia</title>
    <desc>Created with Sketch.</desc>
    <defs></defs>
    <g id="Page-1" stroke="none" stroke-width="1" fill="none" fill-rule="evenodd">
        <g id="pin_officia">
            <g id="Page-1">
                <g>
                    <g id="pin_officia">
                        <g id="officia">
                            <g id="Capa_1">
                                <path d="M16.2477778,3.23788889 L15.9701111,0.07 C15.4595,0.114333333 14.9547222,0.181222222 14.4565555,0.268333333 L15.0091667,3.40005555 C15.4163333,3.32927778 15.8289445,3.27405555 16.2477778,3.23788889 L16.2477778,3.23788889 L16.2477778,3.23788889 Z" id="Shape" fill="#000000"></path>
                                <path d="M19.9795555,3.40005555 L20.5321667,0.268333333 C20.0351667,0.181222222 19.5303889,0.114333333 19.019,0.07 L18.7425,3.23788889 C19.1605555,3.27405555 19.5735555,3.32927778 19.9795555,3.40005555 L19.9795555,3.40005555 L19.9795555,3.40005555 Z" id="Shape" fill="#000000"></path>
                                <path d="M9.2855,5.7715 L7.46161108,3.16672222 C7.04394446,3.45877778 6.6395,3.76833333 6.25061111,4.09538889 L8.295,6.53138889 C8.61388892,6.26344445 8.94483331,6.01066667 9.2855,5.7715 L9.2855,5.7715 L9.2855,5.7715 Z" id="Shape" fill="#000000"></path>
                                <path d="M30.9485555,12.5980555 L33.9387222,11.5099445 C33.7633333,11.0292778 33.5657778,10.5610555 33.3507222,10.101 L30.4675,11.4453889 C30.6432778,11.8210555 30.8058333,12.2056667 30.9485555,12.5980555 L30.9485555,12.5980555 L30.9485555,12.5980555 Z" id="Shape" fill="#000000"></path>
                                <path d="M31.7516111,16.2477778 L34.9195,15.9705 C34.8755555,15.4595 34.8082778,14.9547222 34.7219445,14.4573333 L31.5894445,15.0095555 C31.6606111,15.4167222 31.7158333,15.8293333 31.7516111,16.2477778 L31.7516111,16.2477778 L31.7516111,16.2477778 Z" id="Shape" fill="#000000"></path>
                                <path d="M23.5441111,4.52161111 L24.8888889,1.63877778 C24.4288333,1.42372222 23.9602222,1.22577778 23.4795555,1.05116667 L22.3914445,4.04094445 C22.7853889,4.18366667 23.1688333,4.34583333 23.5441111,4.52161111 L23.5441111,4.52161111 L23.5441111,4.52161111 Z" id="Shape" fill="#000000"></path>
                                <path d="M29.2183889,9.28627777 L31.8235555,7.462 C31.5307222,7.04511108 31.2215555,6.64027778 30.8948889,6.25138889 L28.4585,8.29538892 C28.7260555,8.61388892 28.9788333,8.94483331 29.2183889,9.28627777 L29.2183889,9.28627777 L29.2183889,9.28627777 Z" id="Shape" fill="#000000"></path>
                                <path d="M26.6948889,6.53138889 L28.7392778,4.09538889 C28.3496111,3.76833333 27.9451667,3.45916667 27.5278889,3.16672222 L25.704,5.7715 C26.0454445,6.01105555 26.3763889,6.26344445 26.6948889,6.53138889 L26.6948889,6.53138889 L26.6948889,6.53138889 Z" id="Shape" fill="#000000"></path>
                                <path d="M12.5976667,4.04094445 L11.5091667,1.05116667 C11.0288889,1.22577778 10.5602778,1.42372222 10.101,1.63877778 L11.445,4.52161111 C11.8210555,4.34583333 12.2048889,4.18366667 12.5976667,4.04094445 L12.5976667,4.04094445 L12.5976667,4.04094445 Z" id="Shape" fill="#000000"></path>
                                <path d="M25.7036111,29.2187778 L27.5275,31.8239445 C27.9447778,31.5311111 28.3492222,31.2227222 28.7388889,30.8948889 L26.6945,28.4588889 C26.3763889,28.7260555 26.0454445,28.9792222 25.7036111,29.2187778 L25.7036111,29.2187778 L25.7036111,29.2187778 Z" id="Shape" fill="#000000"></path>
                                <path d="M22.3922222,30.9493333 L23.4803333,33.9395 C23.9606111,33.7641111 24.4296111,33.5661667 24.8896667,33.3515 L23.5448889,30.4678889 C23.1688333,30.6440555 22.7853889,30.8058333 22.3922222,30.9493333 L22.3922222,30.9493333 L22.3922222,30.9493333 Z" id="Shape" fill="#000000"></path>
                                <path d="M18.7425,31.752 L19.019,34.9198889 C19.5303889,34.8759445 20.0351667,34.8090555 20.5321667,34.7219445 L19.9795555,31.5894445 C19.5735555,31.661 19.1605555,31.7158333 18.7425,31.752 L18.7425,31.752 L18.7425,31.752 Z" id="Shape" fill="#000000"></path>
                                <path d="M30.4678889,23.5448889 L33.3511111,24.8888889 C33.5661667,24.4292222 33.7637222,23.9606111 33.9391111,23.4803333 L30.9489445,22.3918333 C30.8058333,22.7846111 30.6432778,23.1688333 30.4678889,23.5448889 L30.4678889,23.5448889 L30.4678889,23.5448889 Z" id="Shape" fill="#000000"></path>
                                <path d="M31.7516111,18.7425 C31.7158333,19.1605555 31.6602222,19.5735555 31.5894445,19.9803333 L34.7219445,20.5329445 C34.8086667,20.0351667 34.8755555,19.5307778 34.9195,19.0193889 L31.7516111,18.7425 L31.7516111,18.7425 L31.7516111,18.7425 Z" id="Shape" fill="#000000"></path>
                                <path d="M28.4585,26.6948889 L30.8948889,28.7388889 C31.2215555,28.35 31.5307222,27.9455555 31.8235555,27.5278889 L29.2183889,25.704 C28.9788333,26.0450555 28.7260555,26.3763889 28.4585,26.6948889 L28.4585,26.6948889 L28.4585,26.6948889 Z" id="Shape" fill="#000000"></path>
                                <path d="M15.0095555,31.5898333 L14.4569445,34.7223333 C14.9547222,34.8094445 15.4598889,34.8763333 15.9705,34.9202778 L16.2477778,31.7523889 C15.8289445,31.7158333 15.4163333,31.661 15.0095555,31.5898333 L15.0095555,31.5898333 L15.0095555,31.5898333 Z" id="Shape" fill="#000000"></path>
                                <path d="M11.4457778,30.4682778 L10.101,33.3518889 C10.5602778,33.5661667 11.0288889,33.7645 11.5091667,33.9398889 L12.5976667,30.9497222 C12.2048889,30.8066111 11.8210555,30.6440555 11.4457778,30.4682778 L11.4457778,30.4682778 L11.4457778,30.4682778 Z" id="Shape" fill="#000000"></path>
                                <g id="Group" fill="#009FE3">
                                    <path d="M11.445,4.52161111 L10.101,1.63877778 C9.63822223,1.85461111 9.1875,2.09144445 8.74844446,2.34538889 L10.3382222,5.0995 C10.6975555,4.89183333 11.0662222,4.69855555 11.445,4.52161111 L11.445,4.52161111 L11.445,4.52161111 Z" id="Shape"></path>
                                    <path d="M15.0095555,3.40005555 L14.4569445,0.268333333 C13.9533333,0.356611111 13.4547778,0.464722222 12.9667222,0.595388889 L13.79,3.66761111 C14.1897778,3.56066667 14.5969445,3.47238889 15.0095555,3.40005555 L15.0095555,3.40005555 L15.0095555,3.40005555 Z" id="Shape"></path>
                                    <path d="M18.7425,3.23788889 L19.019,0.07 C18.5165555,0.0264444445 18.0086667,0 17.4949445,0 L17.4949445,3.18072222 C17.9157222,3.18072222 18.3302778,3.2025 18.7425,3.23788889 L18.7425,3.23788889 L18.7425,3.23788889 Z" id="Shape"></path>
                                    <path d="M8.29538892,6.53138889 L6.251,4.09538889 C5.86133333,4.42244445 5.48372222,4.76466667 5.124,5.12438889 L7.37333331,7.37372223 C7.66733331,7.07894446 7.9765,6.79894445 8.29538892,6.53138889 L8.29538892,6.53138889 L8.29538892,6.53138889 Z" id="Shape"></path>
                                    <path d="M4.04055555,12.5980555 L1.05116667,11.5099445 C0.878111108,11.9855555 0.726833331,12.4724445 0.594611111,12.9667222 L3.66722222,13.79 C3.77533333,13.3855555 3.89861111,12.9873333 4.04055555,12.5980555 L4.04055555,12.5980555 L4.04055555,12.5980555 Z" id="Shape"></path>
                                    <path d="M5.77111111,9.2855 L3.16594445,7.462 C2.87427778,7.87811108 2.60088889,8.30705554 2.34616667,8.74883331 L5.10027778,10.3393889 C5.30833333,9.97733331 5.53233333,9.62616669 5.77111111,9.2855 L5.77111111,9.2855 L5.77111111,9.2855 Z" id="Shape"></path>
                                    <path d="M31.5894445,15.0099445 L34.7219445,14.4577222 C34.6332778,13.9533333 34.5251667,13.4555555 34.3945,12.9671111 L31.3218889,13.7903889 C31.4292222,14.1901667 31.5171111,14.5969445 31.5894445,15.0099445 L31.5894445,15.0099445 L31.5894445,15.0099445 Z" id="Shape"></path>
                                    <path d="M30.4678889,11.4457778 L33.3511111,10.1013889 C33.1352778,9.63822223 32.8984445,9.18788892 32.6441111,8.74883331 L29.89,10.3393889 C30.0976667,10.6983333 30.2909445,11.067 30.4678889,11.4457778 L30.4678889,11.4457778 L30.4678889,11.4457778 Z" id="Shape"></path>
                                    <path d="M31.7516111,18.7425 L34.9195,19.0197778 C34.9626667,18.5169445 34.9898889,18.0090555 34.9898889,17.4953333 L31.8087778,17.4953333 C31.8091667,17.9153333 31.787,18.3314445 31.7516111,18.7425 L31.7516111,18.7425 L31.7516111,18.7425 Z" id="Shape"></path>
                                    <path d="M25.7036111,5.7715 L27.5275,3.16672222 C27.1113889,2.87466667 26.6832222,2.60127778 26.2414445,2.34577778 L24.6512778,5.10027778 C25.0125555,5.30911111 25.3633333,5.53311111 25.7036111,5.7715 L25.7036111,5.7715 L25.7036111,5.7715 Z" id="Shape"></path>
                                    <path d="M22.3922222,4.04094445 L23.4803333,1.05116667 C23.0039445,0.878111108 22.5174445,0.726833331 22.0235555,0.595 L21.2002778,3.66722222 C21.6039445,3.77533333 22.0025555,3.899 22.3922222,4.04094445 L22.3922222,4.04094445 L22.3922222,4.04094445 Z" id="Shape"></path>
                                    <path d="M28.4585,8.29538892 L30.8948889,6.25138889 C30.5674445,5.86133333 30.2256111,5.48411111 29.8658889,5.12438889 L27.6173333,7.37372223 C27.9113333,7.66772223 28.1905555,7.9765 28.4585,8.29538892 L28.4585,8.29538892 L28.4585,8.29538892 Z" id="Shape"></path>
                                    <path d="M23.5441111,30.4682778 L24.8888889,33.3518889 C25.3508889,33.1356667 25.8016111,32.8992222 26.2414445,32.6448889 L24.6512778,29.8907778 C24.2919445,30.0980555 23.9232778,30.2917222 23.5441111,30.4682778 L23.5441111,30.4682778 L23.5441111,30.4682778 Z" id="Shape"></path>
                                    <path d="M19.9795555,31.5898333 L20.5321667,34.7223333 C21.0369445,34.6340555 21.5339445,34.5259445 22.0231667,34.3952778 L21.1998889,31.3226667 C20.7997222,31.4292222 20.3929445,31.5171111 19.9795555,31.5898333 L19.9795555,31.5898333 L19.9795555,31.5898333 Z" id="Shape"></path>
                                    <path d="M26.6948889,28.4588889 L28.7392778,30.8948889 C29.1289445,30.5674445 29.5057778,30.226 29.8655,29.8658889 L27.6169445,27.6165555 C27.3217778,27.9113333 27.0133889,28.1905555 26.6948889,28.4588889 L26.6948889,28.4588889 L26.6948889,28.4588889 Z" id="Shape"></path>
                                    <path d="M16.2477778,31.752 L15.9705,34.9198889 C16.4729445,34.9630555 16.9812222,34.9902778 17.4953333,34.9902778 L17.4953333,31.8091667 C17.0741667,31.8095555 16.6588333,31.7873889 16.2477778,31.752 L16.2477778,31.752 L16.2477778,31.752 Z" id="Shape"></path>
                                    <path d="M3.23788889,16.2477778 L0.0696111111,15.9705 C0.0264444445,16.4733333 0,16.9816111 0,17.4953333 L3.17994445,17.4953333 C3.17994445,17.0741667 3.2025,16.6588333 3.23788889,16.2477778 L3.23788889,16.2477778 L3.23788889,16.2477778 Z" id="Shape"></path>
                                    <path d="M29.2183889,25.7043889 L31.8235555,27.5282778 C32.1152222,27.1121667 32.3886111,26.6836111 32.6441111,26.2414445 L29.89,24.6516667 C29.6811667,25.0121667 29.4571667,25.3637222 29.2183889,25.7043889 L29.2183889,25.7043889 L29.2183889,25.7043889 Z" id="Shape"></path>
                                    <path d="M30.9485555,22.3922222 L33.9387222,23.4807222 C34.1113889,23.0043333 34.2626667,22.5182222 34.3945,22.0239445 L31.3218889,21.2006667 C31.2137778,21.6047222 31.0908889,22.0029445 30.9485555,22.3922222 L30.9485555,22.3922222 L30.9485555,22.3922222 Z" id="Shape"></path>
                                    <path d="M4.52161111,23.5448889 L1.63838889,24.8888889 C1.85422222,25.3516667 2.09183333,25.802 2.34616667,26.2414445 L5.10027778,24.6516667 C4.89183333,24.2919445 4.69816667,23.9236667 4.52161111,23.5448889 L4.52161111,23.5448889 L4.52161111,23.5448889 Z" id="Shape"></path>
                                    <path d="M3.40005555,19.9803333 L0.267555555,20.5329445 C0.356222222,21.0373333 0.463555555,21.5347222 0.594222222,22.0235555 L3.66683333,21.2002778 C3.56027778,20.8005 3.47238889,20.3933333 3.40005555,19.9803333 L3.40005555,19.9803333 L3.40005555,19.9803333 Z" id="Shape"></path>
                                    <path d="M9.28627777,29.2187778 L7.462,31.8239445 C7.87811108,32.1152222 8.30666669,32.3893889 8.74883331,32.6445 L10.3386111,29.8903889 C9.97694446,29.6815555 9.62577777,29.4575555 9.28627777,29.2187778 L9.28627777,29.2187778 L9.28627777,29.2187778 Z" id="Shape"></path>
                                    <path d="M6.53061111,26.6948889 L4.095,28.7388889 C4.42244445,29.1293333 4.76466667,29.5061667 5.124,29.8658889 L7.37333331,27.6165555 C7.07894446,27.3225555 6.79894445,27.0137778 6.53061111,26.6948889 L6.53061111,26.6948889 L6.53061111,26.6948889 Z" id="Shape"></path>
                                    <path d="M12.5976667,30.9493333 L11.5091667,33.9395 C11.9855555,34.1125555 12.4720555,34.2634445 12.9667222,34.3952778 L13.79,31.3226667 C13.3851667,31.2145555 12.9869445,31.0912778 12.5976667,30.9493333 L12.5976667,30.9493333 L12.5976667,30.9493333 Z" id="Shape"></path>
                                </g>
                                <g id="Group" fill="#56AF31">
                                    <path d="M13.7896111,3.66761111 L12.9663333,0.595388889 C12.4716667,0.727222223 11.9851667,0.878111108 11.5087778,1.05155555 L12.5972778,4.04133333 C12.9869445,3.899 13.3851667,3.77533333 13.7896111,3.66761111 L13.7896111,3.66761111 L13.7896111,3.66761111 Z" id="Shape"></path>
                                    <path d="M10.3382222,5.09988889 L8.74844446,2.34577778 C8.30666669,2.60127778 7.87772223,2.87466667 7.46161108,3.16672222 L9.2855,5.7715 C9.62577777,5.53311111 9.97694446,5.30911111 10.3382222,5.09988889 L10.3382222,5.09988889 L10.3382222,5.09988889 Z" id="Shape"></path>
                                    <path d="M17.4949445,3.18072222 L17.4949445,0 C16.9808333,0 16.4729445,0.0264444445 15.9701111,0.07 L16.2473889,3.23788889 C16.6588333,3.2025 17.0741667,3.18072222 17.4949445,3.18072222 L17.4949445,3.18072222 L17.4949445,3.18072222 Z" id="Shape"></path>
                                    <path d="M5.10027778,10.339 L2.34616667,8.74844446 C2.09183333,9.1875 1.85422222,9.63783331 1.63838889,10.101 L4.522,11.445 C4.69816667,11.0666111 4.89183333,10.6983333 5.10027778,10.339 L5.10027778,10.339 L5.10027778,10.339 Z" id="Shape"></path>
                                    <path d="M3.66722222,13.7896111 L0.594611111,12.9663333 C0.463944445,13.4547778 0.356611111,13.9529445 0.267944445,14.4569445 L3.40044445,15.0091667 C3.47238889,14.5969445 3.56027778,14.1897778 3.66722222,13.7896111 L3.66722222,13.7896111 L3.66722222,13.7896111 Z" id="Shape"></path>
                                    <path d="M7.37294446,7.37333331 L5.12361111,5.124 C4.76427778,5.48411111 4.42205555,5.86094445 4.09461111,6.251 L6.53061111,8.295 C6.79894445,7.9765 7.07894446,7.66772223 7.37294446,7.37333331 L7.37294446,7.37333331 L7.37294446,7.37333331 Z" id="Shape"></path>
                                    <path d="M31.3218889,13.7896111 L34.3945,12.9663333 C34.2626667,12.4720555 34.111,11.9851667 33.9387222,11.5095555 L30.9485555,12.5976667 C31.0908889,12.9873333 31.2137778,13.3855555 31.3218889,13.7896111 L31.3218889,13.7896111 L31.3218889,13.7896111 Z" id="Shape"></path>
                                    <path d="M29.89,10.339 L32.6441111,8.74844446 C32.3886111,8.30666669 32.1152222,7.87811108 31.8235555,7.46161108 L29.2183889,9.28588892 C29.4571667,9.62616669 29.6811667,9.97733331 29.89,10.339 L29.89,10.339 L29.89,10.339 Z" id="Shape"></path>
                                    <path d="M31.8091667,17.4953333 L34.9902778,17.4953333 C34.9902778,16.9816111 34.9634445,16.4733333 34.9198889,15.9705 L31.752,16.2477778 C31.787,16.6588333 31.8091667,17.0745555 31.8091667,17.4953333 L31.8091667,17.4953333 L31.8091667,17.4953333 Z" id="Shape"></path>
                                    <path d="M21.2002778,3.66761111 L22.0235555,0.595388889 C21.5343333,0.464722222 21.0373333,0.356611111 20.5325555,0.268333333 L19.9799445,3.40005555 C20.3929445,3.47238889 20.7997222,3.56027778 21.2002778,3.66761111 L21.2002778,3.66761111 L21.2002778,3.66761111 Z" id="Shape"></path>
                                    <path d="M24.6512778,5.10027778 L26.2414445,2.34577778 C25.8016111,2.09183333 25.3508889,1.855 24.8888889,1.63916667 L23.5441111,4.522 C23.9232778,4.69855555 24.2919445,4.89183333 24.6512778,5.10027778 L24.6512778,5.10027778 L24.6512778,5.10027778 Z" id="Shape"></path>
                                    <path d="M27.6169445,7.37333331 L29.8655,5.124 C29.5057778,4.76466667 29.1285555,4.42205555 28.7392778,4.095 L26.6948889,6.531 C27.0133889,6.79894445 27.3217778,7.07894446 27.6169445,7.37333331 L27.6169445,7.37333331 L27.6169445,7.37333331 Z" id="Shape"></path>
                                    <path d="M24.6512778,29.8903889 L26.2414445,32.6445 C26.6832222,32.3893889 27.1113889,32.1156111 27.5275,31.8239445 L25.7036111,29.2187778 C25.3633333,29.4575555 25.0125555,29.6815555 24.6512778,29.8903889 L24.6512778,29.8903889 L24.6512778,29.8903889 Z" id="Shape"></path>
                                    <path d="M17.4949445,31.8095555 L17.4949445,34.9906667 C18.0082778,34.9906667 18.5165555,34.9634445 19.019,34.9202778 L18.7425,31.7523889 C18.3302778,31.7873889 17.9157222,31.8095555 17.4949445,31.8095555 L17.4949445,31.8095555 L17.4949445,31.8095555 Z" id="Shape"></path>
                                    <path d="M21.2002778,31.3222778 L22.0235555,34.3948889 C22.5174445,34.2630555 23.0039445,34.1121667 23.4803333,33.9391111 L22.3922222,30.9489445 C22.0025555,31.0912778 21.6039445,31.2145555 21.2002778,31.3222778 L21.2002778,31.3222778 L21.2002778,31.3222778 Z" id="Shape"></path>
                                    <path d="M31.3218889,21.2006667 L34.3945,22.0239445 C34.5251667,21.5351111 34.6332778,21.0377222 34.7219445,20.5333333 L31.5894445,19.9807222 C31.5171111,20.3933333 31.4292222,20.8001111 31.3218889,21.2006667 L31.3218889,21.2006667 L31.3218889,21.2006667 Z" id="Shape"></path>
                                    <path d="M29.89,24.6516667 L32.6441111,26.2414445 C32.8984445,25.8023889 33.1352778,25.3516667 33.3511111,24.8888889 L30.4678889,23.5448889 C30.2909445,23.9228889 30.0976667,24.2919445 29.89,24.6516667 L29.89,24.6516667 L29.89,24.6516667 Z" id="Shape"></path>
                                    <path d="M27.6169445,27.6165555 L29.8655,29.8658889 C30.2252222,29.5061667 30.5670555,29.1293333 30.8945,28.7388889 L28.4581111,26.6948889 C28.1905555,27.0137778 27.9105555,27.3225555 27.6169445,27.6165555 L27.6169445,27.6165555 L27.6169445,27.6165555 Z" id="Shape"></path>
                                    <path d="M5.10027778,24.6516667 L2.34616667,26.2414445 C2.60088889,26.6832222 2.87427778,27.1121667 3.16594445,27.5282778 L5.77111111,25.7043889 C5.53233333,25.3637222 5.30833333,25.0129445 5.10027778,24.6516667 L5.10027778,24.6516667 L5.10027778,24.6516667 Z" id="Shape"></path>
                                    <path d="M3.66722222,21.2006667 L0.594611111,22.0239445 C0.727222223,22.5182222 0.878111108,23.0043333 1.05116667,23.4807222 L4.04055555,22.3922222 C3.89861111,22.0029445 3.77533333,21.6047222 3.66722222,21.2006667 L3.66722222,21.2006667 L3.66722222,21.2006667 Z" id="Shape"></path>
                                    <path d="M3.17994445,17.4953333 L0,17.4953333 C0,18.0090555 0.0264444445,18.5169445 0.0696111111,19.0197778 L3.23788889,18.7425 C3.2025,18.3314445 3.17994445,17.9157222 3.17994445,17.4953333 L3.17994445,17.4953333 L3.17994445,17.4953333 Z" id="Shape"></path>
                                    <path d="M13.7896111,31.3222778 L12.9663333,34.3948889 C13.4543889,34.5255555 13.9529445,34.6336667 14.4565555,34.7219445 L15.0091667,31.5894445 C14.5969445,31.5171111 14.1897778,31.4292222 13.7896111,31.3222778 L13.7896111,31.3222778 L13.7896111,31.3222778 Z" id="Shape"></path>
                                    <path d="M10.3382222,29.8903889 L8.74844446,32.6445 C9.1875,32.8988333 9.63822223,33.1356667 10.101,33.3515 L11.4457778,30.4678889 C11.0666111,30.2917222 10.6983333,30.0980555 10.3382222,29.8903889 L10.3382222,29.8903889 L10.3382222,29.8903889 Z" id="Shape"></path>
                                    <path d="M7.37294446,27.6165555 L5.12361111,29.8658889 C5.48372222,30.226 5.86094445,30.5674445 6.25061111,30.8948889 L8.295,28.4588889 C7.9765,28.1905555 7.66733331,27.9113333 7.37294446,27.6165555 L7.37294446,27.6165555 L7.37294446,27.6165555 Z" id="Shape"></path>
                                </g>
                                <path d="M8.29538892,28.4588889 L6.251,30.8948889 C6.63988889,31.2223333 7.04433331,31.5307222 7.462,31.8239445 L9.28627777,29.2187778 C8.94483331,28.9792222 8.61388892,28.7260555 8.29538892,28.4588889 L8.29538892,28.4588889 L8.29538892,28.4588889 Z" id="Shape" fill="#000000"></path>
                                <path d="M13.6861667,7.03072223 L12.5976667,4.04094445 C12.2048889,4.18366667 11.8210555,4.34583333 11.445,4.52161111 L12.789,7.40405554 C13.0822222,7.26755554 13.3797222,7.14155554 13.6861667,7.03072223 L13.6861667,7.03072223 L13.6861667,7.03072223 Z" id="Shape" fill="#FFFFFF"></path>
                                <path d="M18.4652222,6.40577778 L18.7425,3.2375 C18.3302778,3.20211111 17.9157222,3.18033333 17.4949445,3.18033333 L17.4949445,6.36144445 C17.8227778,6.36144445 18.1451667,6.37894445 18.4652222,6.40577778 L18.4652222,6.40577778 L18.4652222,6.40577778 Z" id="Shape" fill="#000000"></path>
                                <path d="M12.7893889,7.40444446 L11.4453889,4.522 C11.0666111,4.69855555 10.6979445,4.89222222 10.3386111,5.10027778 L11.9291667,7.85477777 C12.2087778,7.69261108 12.495,7.54211108 12.7893889,7.40444446 L12.7893889,7.40444446 L12.7893889,7.40444446 Z" id="Shape" fill="#000000"></path>
                                <path d="M11.1093889,8.37666669 L9.28588892,5.7715 C8.94522223,6.01066667 8.61388892,6.26344445 8.29538892,6.53138889 L10.339,8.96777777 C10.5871111,8.75933331 10.8441667,8.56333331 11.1093889,8.37666669 L11.1093889,8.37666669 L11.1093889,8.37666669 Z" id="Shape" fill="#000000"></path>
                                <path d="M10.339,8.96777777 L8.29538892,6.53138889 C7.97688892,6.79894445 7.66733331,7.07894446 7.37333331,7.37333331 L9.62305554,9.62227777 C9.85133331,9.39361108 10.0912778,9.17622223 10.339,8.96777777 L10.339,8.96777777 L10.339,8.96777777 Z" id="Shape" fill="#000000"></path>
                                <path d="M16.5242778,6.40577778 L16.2477778,3.23788889 C15.8289445,3.27444445 15.4163333,3.32927778 15.0095555,3.40005555 L15.5613889,6.53216667 C15.8783333,6.47694445 16.1995555,6.43416667 16.5242778,6.40577778 L16.5242778,6.40577778 L16.5242778,6.40577778 Z" id="Shape" fill="#000000"></path>
                                <path d="M14.6132778,6.74022222 L13.79,3.66761111 C13.3855555,3.77572222 12.9873333,3.89938889 12.5980555,4.04094445 L13.6865555,7.03072223 C13.9887222,6.92027778 14.2986667,6.82422222 14.6132778,6.74022222 L14.6132778,6.74022222 L14.6132778,6.74022222 Z" id="Shape" fill="#000000"></path>
                                <path d="M17.4949445,6.36144445 L17.4949445,3.18033333 C17.0741667,3.18033333 16.6588333,3.20211111 16.2477778,3.2375 L16.5242778,6.40577778 C16.8447222,6.37894445 17.1675,6.36144445 17.4949445,6.36144445 L17.4949445,6.36144445 L17.4949445,6.36144445 Z" id="Shape" fill="#FFFFFF"></path>
                                <path d="M15.5617778,6.53216667 L15.0099445,3.40005555 C14.5969445,3.47238889 14.1901667,3.56066667 13.79,3.66761111 L14.6132778,6.74022222 C14.9236111,6.65738889 15.2401667,6.58855555 15.5617778,6.53216667 L15.5617778,6.53216667 L15.5617778,6.53216667 Z" id="Shape" fill="#FFFFFF"></path>
                                <path d="M11.9287778,7.85438892 L10.3382222,5.09988889 C9.97694446,5.30911111 9.62577777,5.53311111 9.2855,5.7715 L11.109,8.37666669 C11.3746111,8.19116669 11.6472222,8.01694446 11.9287778,7.85438892 L11.9287778,7.85438892 L11.9287778,7.85438892 Z" id="Shape" fill="#FFFFFF"></path>
                                <path d="M9.62266669,9.62227777 L7.37294446,7.37333331 C7.07855554,7.66772223 6.79855555,7.9765 6.53061111,8.29538892 L8.96738892,10.3397778 C9.17622223,10.0912778 9.39322223,9.85133331 9.62266669,9.62227777 L9.62266669,9.62227777 L9.62266669,9.62227777 Z" id="Shape" fill="#000000"></path>
                                <path d="M27.9595555,13.6865555 L30.9489445,12.5980555 C30.8062222,12.2056667 30.6436667,11.8210555 30.4682778,11.4457778 L27.5858333,12.7901667 C27.7219445,13.0822222 27.8483333,13.3808889 27.9595555,13.6865555 L27.9595555,13.6865555 L27.9595555,13.6865555 Z" id="Shape" fill="#000000"></path>
                                <path d="M26.6128333,11.1101667 L29.2183889,9.28627777 C28.9788333,8.94483331 28.7260555,8.61388892 28.4585,8.295 L26.0217222,10.3393889 C26.2309445,10.5871111 26.4273333,10.8453333 26.6128333,11.1101667 L26.6128333,11.1101667 L26.6128333,11.1101667 Z" id="Shape" fill="#000000"></path>
                                <path d="M27.1351111,11.9291667 L29.89,10.3393889 C29.6811667,9.97772223 29.4571667,9.62655554 29.2183889,9.28666669 L26.6128333,11.1105555 C26.7991111,11.375 26.9729445,11.648 27.1351111,11.9291667 L27.1351111,11.9291667 L27.1351111,11.9291667 Z" id="Shape" fill="#FFFFFF"></path>
                                <path d="M28.2492778,14.6132778 L31.3218889,13.79 C31.2137778,13.3859445 31.0905,12.9877222 30.9485555,12.5984445 L27.9591667,13.6869445 C28.0688333,13.9895 28.1656667,14.2986667 28.2492778,14.6132778 L28.2492778,14.6132778 L28.2492778,14.6132778 Z" id="Shape" fill="#FFFFFF"></path>
                                <path d="M28.6280555,17.4953333 L31.8091667,17.4953333 C31.8091667,17.0745555 31.787,16.6592222 31.752,16.2477778 L28.5841111,16.5250555 C28.6113333,16.8447222 28.6280555,17.1678889 28.6280555,17.4953333 L28.6280555,17.4953333 L28.6280555,17.4953333 Z" id="Shape" fill="#000000"></path>
                                <path d="M28.5837222,16.5250555 L31.7516111,16.2477778 C31.7158333,15.8293333 31.6602222,15.4167222 31.5894445,15.0099445 L28.4577222,15.5621667 C28.5125555,15.8787222 28.5553333,16.1995555 28.5837222,16.5250555 L28.5837222,16.5250555 L28.5837222,16.5250555 Z" id="Shape" fill="#000000"></path>
                                <path d="M23.0615,7.85438892 L24.6512778,5.10027778 C24.2919445,4.89183333 23.9228889,4.69855555 23.5441111,4.522 L22.1997222,7.40444446 C22.4945,7.54211108 22.7815,7.69261108 23.0615,7.85438892 L23.0615,7.85438892 L23.0615,7.85438892 Z" id="Shape" fill="#FFFFFF"></path>
                                <path d="M21.3041111,7.03072223 L22.3922222,4.04094445 C22.0029445,3.899 21.6043333,3.77533333 21.2006667,3.66761111 L20.3773889,6.74022222 C20.6908333,6.82422222 21.0011667,6.92027778 21.3041111,7.03072223 L21.3041111,7.03072223 L21.3041111,7.03072223 Z" id="Shape" fill="#FFFFFF"></path>
                                <path d="M19.4277222,6.53216667 L19.9799445,3.40005555 C19.5735555,3.32888889 19.1609445,3.27405555 18.7428889,3.23788889 L18.4656111,6.40616667 C18.7907222,6.43416667 19.1115555,6.47694445 19.4277222,6.53216667 L19.4277222,6.53216667 L19.4277222,6.53216667 Z" id="Shape" fill="#FFFFFF"></path>
                                <path d="M20.377,6.74022222 L21.2002778,3.66761111 C20.7997222,3.56066667 20.3929445,3.47277778 19.9795555,3.40005555 L19.4273333,6.53216667 C19.7493333,6.58855555 20.0658889,6.65738889 20.377,6.74022222 L20.377,6.74022222 L20.377,6.74022222 Z" id="Shape" fill="#000000"></path>
                                <path d="M22.2001111,7.40444446 L23.5445,4.522 C23.1692222,4.34622222 22.7853889,4.18405555 22.3922222,4.04133333 L21.3041111,7.03111108 C21.6093889,7.14155554 21.9072778,7.26755554 22.2001111,7.40444446 L22.2001111,7.40444446 L22.2001111,7.40444446 Z" id="Shape" fill="#000000"></path>
                                <path d="M23.8793333,8.37666669 L25.7036111,5.7715 C25.3633333,5.53311111 25.0125555,5.30911111 24.6512778,5.09988889 L23.0615,7.854 C23.3422778,8.01694446 23.6148889,8.19116669 23.8793333,8.37666669 L23.8793333,8.37666669 L23.8793333,8.37666669 Z" id="Shape" fill="#000000"></path>
                                <path d="M25.3676111,9.62266669 L27.6169445,7.37333331 C27.3217778,7.07894446 27.0133889,6.79894445 26.6948889,6.53138889 L24.6497222,8.96777777 C24.8986111,9.17622223 25.1381667,9.39361108 25.3676111,9.62266669 L25.3676111,9.62266669 L25.3676111,9.62266669 Z" id="Shape" fill="#000000"></path>
                                <path d="M24.6497222,8.96777777 L26.6948889,6.53138889 C26.3763889,6.26383333 26.0454445,6.01144445 25.7036111,5.7715 L23.8793333,8.37666669 C24.1449445,8.56333331 24.4027778,8.75933331 24.6497222,8.96777777 L24.6497222,8.96777777 L24.6497222,8.96777777 Z" id="Shape" fill="#000000"></path>
                                <path d="M28.4577222,19.4281111 L31.5894445,19.9799445 C31.6602222,19.5731667 31.7158333,19.1601667 31.7516111,18.7421111 L28.5837222,18.4648333 C28.5553333,18.7903333 28.5125555,19.1115555 28.4577222,19.4281111 L28.4577222,19.4281111 L28.4577222,19.4281111 Z" id="Shape" fill="#000000"></path>
                                <path d="M23.0607222,27.1358889 L24.6512778,29.8903889 C25.0125555,29.6815555 25.3633333,29.4575555 25.7036111,29.2187778 L23.8793333,26.6132222 C23.6148889,26.7987222 23.3422778,26.9729445 23.0607222,27.1358889 L23.0607222,27.1358889 L23.0607222,27.1358889 Z" id="Shape" fill="#000000"></path>
                                <path d="M23.8793333,26.6132222 L25.7036111,29.2187778 C26.0454445,28.9792222 26.376,28.7260555 26.6948889,28.4588889 L24.6497222,26.0221111 C24.4027778,26.2301667 24.1449445,26.4269445 23.8793333,26.6132222 L23.8793333,26.6132222 L23.8793333,26.6132222 Z" id="Shape" fill="#FFFFFF"></path>
                                <path d="M20.377,28.2500555 L21.2002778,31.3222778 C21.6039445,31.2141667 22.0025555,31.0908889 22.3918333,30.9493333 L21.3029445,27.9591667 C21.0007778,28.0692222 20.6908333,28.1652778 20.377,28.2500555 L20.377,28.2500555 L20.377,28.2500555 Z" id="Shape" fill="#000000"></path>
                                <path d="M18.4652222,28.5837222 L18.7425,31.752 C19.1605555,31.7154445 19.5731667,31.6606111 19.9795555,31.5894445 L19.4273333,28.4569445 C19.1115555,28.5129445 18.7907222,28.5557222 18.4652222,28.5837222 L18.4652222,28.5837222 L18.4652222,28.5837222 Z" id="Shape" fill="#000000"></path>
                                <path d="M17.4949445,28.6288333 L17.4949445,31.8095555 C17.9157222,31.8095555 18.3302778,31.787 18.7425,31.752 L18.4652222,28.5837222 C18.1451667,28.6113333 17.8227778,28.6288333 17.4949445,28.6288333 L17.4949445,28.6288333 L17.4949445,28.6288333 Z" id="Shape" fill="#000000"></path>
                                <path d="M27.9595555,21.3041111 L30.9489445,22.3918333 C31.0912778,22.0029445 31.2141667,21.6043333 31.3222778,21.2002778 L28.2496667,20.3766111 C28.1656667,20.6912222 28.0688333,21.0007778 27.9595555,21.3041111 L27.9595555,21.3041111 L27.9595555,21.3041111 Z" id="Shape" fill="#000000"></path>
                                <path d="M28.2492778,20.377 L31.3218889,21.2006667 C31.4288333,20.8005 31.5171111,20.3933333 31.5894445,19.9803333 L28.4577222,19.4285 C28.4009445,19.7497222 28.3325,20.0662778 28.2492778,20.377 L28.2492778,20.377 L28.2492778,20.377 Z" id="Shape" fill="#000000"></path>
                                <path d="M27.5854445,22.2005 L30.4678889,23.5448889 C30.6436667,23.1688333 30.8062222,22.7846111 30.9485555,22.3922222 L27.9591667,21.3045 C27.8483333,21.6093889 27.7219445,21.9076667 27.5854445,22.2005 L27.5854445,22.2005 L27.5854445,22.2005 Z" id="Shape" fill="#000000"></path>
                                <path d="M28.6280555,17.4953333 C28.6280555,17.8223889 28.6113333,18.1455555 28.5837222,18.4652222 L31.7516111,18.7425 C31.7866111,18.3314445 31.8087778,17.9157222 31.8087778,17.4953333 L28.6280555,17.4953333 L28.6280555,17.4953333 L28.6280555,17.4953333 Z" id="Shape" fill="#000000"></path>
                                <path d="M26.0217222,24.6501111 L28.4585,26.6948889 C28.7260555,26.3763889 28.9788333,26.0450555 29.2183889,25.7043889 L26.6128333,23.8797222 C26.4273333,24.1449445 26.2301667,24.4027778 26.0217222,24.6501111 L26.0217222,24.6501111 L26.0217222,24.6501111 Z" id="Shape" fill="#000000"></path>
                                <path d="M25.3668333,25.3672222 L27.6169445,27.6165555 C27.9105555,27.3225555 28.1905555,27.0137778 28.4585,26.6948889 L26.0217222,24.6501111 C25.8132778,24.8986111 25.5962778,25.1385555 25.3668333,25.3672222 L25.3668333,25.3672222 L25.3668333,25.3672222 Z" id="Shape" fill="#000000"></path>
                                <path d="M27.1351111,23.0611111 L29.89,24.6512778 C30.0976667,24.2919445 30.2909445,23.9225 30.4678889,23.5445 L27.5854445,22.2001111 C27.4477778,22.4948889 27.2968889,22.7818889 27.1351111,23.0611111 L27.1351111,23.0611111 L27.1351111,23.0611111 Z" id="Shape" fill="#000000"></path>
                                <path d="M26.6128333,23.8797222 L29.2183889,25.7043889 C29.4571667,25.3641111 29.6811667,25.0121667 29.89,24.6516667 L27.1351111,23.0611111 C26.9721667,23.3418889 26.7991111,23.6152778 26.6128333,23.8797222 L26.6128333,23.8797222 L26.6128333,23.8797222 Z" id="Shape" fill="#000000"></path>
                                <path d="M21.3029445,27.9591667 L22.3918333,30.9493333 C22.785,30.8058333 23.1688333,30.6440555 23.5441111,30.4682778 L22.1997222,27.5854445 C21.9072778,27.7219445 21.6093889,27.8479445 21.3029445,27.9591667 L21.3029445,27.9591667 L21.3029445,27.9591667 Z" id="Shape" fill="#FFFFFF"></path>
                                <path d="M7.854,23.0611111 L5.10027778,24.6512778 C5.30833333,25.0125555 5.53233333,25.3637222 5.7715,25.704 L8.37666669,23.8797222 C8.19077777,23.6152778 8.01655554,23.3422778 7.854,23.0611111 L7.854,23.0611111 L7.854,23.0611111 Z" id="Shape" fill="#FFFFFF"></path>
                                <path d="M16.5242778,28.5837222 L16.2477778,31.752 C16.6588333,31.787 17.0741667,31.8095555 17.4949445,31.8095555 L17.4949445,28.6288333 C17.1675,28.6288333 16.8447222,28.6113333 16.5242778,28.5837222 L16.5242778,28.5837222 L16.5242778,28.5837222 Z" id="Shape" fill="#000000"></path>
                                <path d="M12.7893889,27.5854445 L11.4457778,30.4682778 C11.8210555,30.6444445 12.2048889,30.8066111 12.5976667,30.9493333 L13.6861667,27.9591667 C13.3805,27.8479445 13.0822222,27.7219445 12.7893889,27.5854445 L12.7893889,27.5854445 L12.7893889,27.5854445 Z" id="Shape" fill="#FFFFFF"></path>
                                <g id="Group" transform="translate(3.111111, 7.000000)" fill="#5BC5F2">
                                    <path d="M4.74288889,4.92877778 L1.98916667,3.339 C1.78072222,3.69794445 1.58705555,4.06661111 1.41088889,4.445 L4.29333333,5.78977778 C4.43061111,5.49538889 4.58111111,5.20877778 4.74288889,4.92877778 L4.74288889,4.92877778 L4.74288889,4.92877778 Z" id="Shape"></path>
                                    <path d="M5.85666667,3.33977778 L3.41988889,1.29538889 C3.15272222,1.61388889 2.89994445,1.94483333 2.66038889,2.28588889 L5.26555555,4.11055555 C5.45144445,3.84533333 5.64822222,3.58711111 5.85666667,3.33977778 L5.85666667,3.33977778 L5.85666667,3.33977778 Z" id="Shape"></path>
                                    <path d="M5.26516667,4.11016667 L2.66,2.2855 C2.42122222,2.62616667 2.19722222,2.97733333 1.98877778,3.339 L4.7425,4.92877778 C4.90544445,4.648 5.07966667,4.375 5.26516667,4.11016667 L5.26516667,4.11016667 L5.26516667,4.11016667 Z" id="Shape"></path>
                                    <path d="M24.4743333,5.79016667 L27.3567778,4.44577778 C27.1798333,4.067 26.9865555,3.69833333 26.7788889,3.339 L24.024,4.92877778 C24.1857778,5.20877778 24.3366667,5.49538889 24.4743333,5.79016667 L24.4743333,5.79016667 L24.4743333,5.79016667 Z" id="Shape"></path>
                                    <path d="M3.29466667,9.52505554 L0.126777778,9.24777777 C0.0917777777,9.65922223 0.0692222222,10.0741667 0.0692222222,10.4953333 L3.25033333,10.4953333 C3.24994445,10.1678889 3.26666667,9.84472223 3.29466667,9.52505554 L3.29466667,9.52505554 L3.29466667,9.52505554 Z" id="Shape"></path>
                                    <path d="M25.3466111,8.56216669 L28.4783333,8.00994446 C28.4056111,7.59694446 28.3177222,7.19016669 28.2107778,6.79 L25.1381667,7.61327777 C25.2213889,7.92438892 25.2898333,8.24094446 25.3466111,8.56216669 L25.3466111,8.56216669 L25.3466111,8.56216669 Z" id="Shape"></path>
                                    <path d="M22.9106111,3.33977778 L25.3473889,1.29538889 C25.0798333,0.9765 24.8002222,0.667722222 24.5058333,0.373333333 L22.2565,2.62266667 C22.4851667,2.85133333 22.7029445,3.09166667 22.9106111,3.33977778 L22.9106111,3.33977778 L22.9106111,3.33977778 Z" id="Shape"></path>
                                    <path d="M3.24994445,10.4953333 L0.0688333333,10.4953333 C0.0688333333,10.9157222 0.0913888892,11.3314445 0.126388889,11.7425 L3.29466667,11.4652222 C3.26666667,11.1455555 3.24994445,10.8223889 3.24994445,10.4953333 L3.24994445,10.4953333 L3.24994445,10.4953333 Z" id="Shape"></path>
                                    <path d="M19.089,20.5854445 L20.4333889,23.4682778 C20.8121667,23.2917222 21.1808333,23.0980555 21.5405555,22.8903889 L19.95,20.1358889 C19.6703889,20.2972778 19.3833889,20.4477778 19.089,20.5854445 L19.089,20.5854445 L19.089,20.5854445 Z" id="Shape"></path>
                                    <path d="M21.5386111,19.0225 L23.5837778,21.4592778 C23.9022778,21.1909445 24.2106667,20.9117222 24.5058333,20.6169445 L22.2557222,18.3676111 C22.0270555,18.5966667 21.7867222,18.8136667 21.5386111,19.0225 L21.5386111,19.0225 L21.5386111,19.0225 Z" id="Shape"></path>
                                    <path d="M16.3166111,21.4573333 L16.8688333,24.5898333 C17.2822222,24.5171111 17.689,24.4292222 18.0895555,24.3222778 L17.2662778,21.2500555 C16.9547778,21.3328889 16.6382222,21.4013333 16.3166111,21.4573333 L16.3166111,21.4573333 L16.3166111,21.4573333 Z" id="Shape"></path>
                                    <path d="M5.26516667,16.8801111 L2.66,18.7043889 C2.89955555,19.0454445 3.15272222,19.3763889 3.4195,19.6948889 L5.85627778,17.6501111 C5.64822222,17.4027778 5.45144445,17.1449445 5.26516667,16.8801111 L5.26516667,16.8801111 L5.26516667,16.8801111 Z" id="Shape"></path>
                                    <path d="M5.85666667,17.6501111 L3.41988889,19.6948889 C3.68783333,20.0137778 3.96783333,20.3225555 4.26222222,20.6165555 L6.51194445,18.3672222 C6.28211111,18.1385555 6.06511111,17.8986111 5.85666667,17.6501111 L5.85666667,17.6501111 L5.85666667,17.6501111 Z" id="Shape"></path>
                                    <path d="M3.29466667,11.4652222 L0.126388889,11.7425 C0.162166667,12.1605555 0.216611111,12.5735555 0.288944445,12.9803333 L3.42027778,12.4285 C3.36505555,12.1115555 3.32305555,11.7907222 3.29466667,11.4652222 L3.29466667,11.4652222 L3.29466667,11.4652222 Z" id="Shape"></path>
                                    <path d="M10.5750555,20.9591667 L9.48655554,23.9493333 C9.87583331,24.0912778 10.2740555,24.2145555 10.6785,24.3222778 L11.5017778,21.2500555 C11.1875555,21.1652778 10.8776111,21.0692222 10.5750555,20.9591667 L10.5750555,20.9591667 L10.5750555,20.9591667 Z" id="Shape"></path>
                                    <path d="M11.5021667,21.2500555 L10.6788889,24.3222778 C11.0786667,24.4292222 11.4858333,24.5171111 11.8988333,24.5898333 L12.4506667,21.4573333 C12.1290555,21.4013333 11.8125,21.3328889 11.5021667,21.2500555 L11.5021667,21.2500555 L11.5021667,21.2500555 Z" id="Shape"></path>
                                    <path d="M12.4506667,21.4573333 L11.8988333,24.5898333 C12.3052222,24.661 12.7178333,24.7158333 13.1370555,24.7523889 L13.4135555,21.5841111 C13.0884445,21.5557222 12.7672222,21.5129445 12.4506667,21.4573333 L12.4506667,21.4573333 L12.4506667,21.4573333 Z" id="Shape"></path>
                                    <path d="M6.51155555,18.3672222 L4.26183333,20.6165555 C4.55583333,20.9113333 4.86538889,21.1905555 5.18388889,21.4588889 L7.22827777,19.0221111 C6.98094445,18.8136667 6.74061111,18.5966667 6.51155555,18.3672222 L6.51155555,18.3672222 L6.51155555,18.3672222 Z" id="Shape"></path>
                                </g>
                                <path d="M10.3393889,26.0225 L8.295,28.4592778 C8.6135,28.7264445 8.94444446,28.9792222 9.28588892,29.2191667 L11.1097778,26.6136111 C10.8441667,26.4273333 10.5871111,26.2305555 10.3393889,26.0225 L10.3393889,26.0225 L10.3393889,26.0225 Z" id="Shape" fill="#000000"></path>
                                <path d="M11.9287778,27.1358889 L10.3382222,29.8903889 C10.6979445,30.0980555 11.0666111,30.2917222 11.4457778,30.4682778 L12.7893889,27.5854445 C12.495,27.4477778 12.2087778,27.2972778 11.9287778,27.1358889 L11.9287778,27.1358889 L11.9287778,27.1358889 Z" id="Shape" fill="#000000"></path>
                                <path d="M11.1101667,26.6132222 L9.28627777,29.2187778 C9.62616669,29.4575555 9.97694446,29.6815555 10.3386111,29.8903889 L11.9291667,27.1358889 C11.648,26.9729445 11.3746111,26.7987222 11.1101667,26.6132222 L11.1101667,26.6132222 L11.1101667,26.6132222 Z" id="Shape" fill="#000000"></path>
                                <path d="M17.4949445,9.54255554 L17.4949445,6.36183333 C17.1675,6.36183333 16.8447222,6.37894445 16.5238889,6.40616667 L16.8019445,9.57755554 C17.031,9.55772223 17.2612222,9.54255554 17.4949445,9.54255554 L17.4949445,9.54255554 L17.4949445,9.54255554 Z" id="Shape" fill="#FFFFFF"></path>
                                <path d="M11.8712222,11.8716111 L9.62266669,9.62227777 C9.39322223,9.85094446 9.17622223,10.0908889 8.96777777,10.3397778 L11.4053333,12.3853333 C11.5538889,12.208 11.7082778,12.0357222 11.8712222,11.8716111 L11.8712222,11.8716111 L11.8712222,11.8716111 Z" id="Shape" fill="#FFFFFF"></path>
                                <path d="M23.1178889,23.1178889 L25.3668333,25.3672222 C25.5958889,25.1385555 25.8132778,24.8986111 26.0217222,24.6501111 L23.5841667,22.6041667 C23.4352222,22.7818889 23.2812222,22.9549445 23.1178889,23.1178889 L23.1178889,23.1178889 L23.1178889,23.1178889 Z" id="Shape" fill="#FFFFFF"></path>
                                <g id="Group" transform="translate(6.611111, 19.444445)" fill="#5BC5F2">
                                    <path d="M10.1912222,5.96788889 L9.91316669,9.13927777 C10.234,9.1665 10.5563889,9.18438892 10.8842222,9.18438892 L10.8842222,6.00288889 C10.6501111,6.00327778 10.4198889,5.98772222 10.1912222,5.96788889 L10.1912222,5.96788889 L10.1912222,5.96788889 Z" id="Shape"></path>
                                    <g id="Shape">
                                        <path d="M4.37422222,2.60905555 L1.76555555,4.43527778 C1.95183333,4.7005 2.14861111,4.95794445 2.35705555,5.20527778 L4.79461111,3.16011111 C4.64527778,2.98355555 4.50644445,2.79883333 4.37422222,2.60905555 L4.37422222,2.60905555 L4.37422222,2.60905555 Z"></path>
                                        <path d="M5.26011111,3.67344445 L3.01155555,5.92277778 C3.24061111,6.15222222 3.48094445,6.36922222 3.72827778,6.57805555 L5.77422222,4.1405 C5.59727778,3.99155555 5.42383333,3.83716667 5.26011111,3.67344445 L5.26011111,3.67344445 L5.26011111,3.67344445 Z"></path>
                                        <path d="M3.68238889,1.40894445 L0.792944446,2.75605555 C0.930222223,3.05005555 1.08111111,3.33705555 1.24288889,3.61666667 L4.00166667,2.02338889 C3.88694445,1.82427778 3.78116667,1.61894445 3.68238889,1.40894445 L3.68238889,1.40894445 L3.68238889,1.40894445 Z"></path>
                                        <path d="M3.2095,0.106944445 L0.128722222,0.932555554 C0.212722222,1.24677778 0.309555555,1.55672222 0.419222222,1.85966667 L3.41794445,0.767666669 C3.339,0.551444445 3.26938889,0.331722222 3.2095,0.106944445 L3.2095,0.106944445 L3.2095,0.106944445 Z"></path>
                                        <path d="M7.52655554,5.25155555 L6.17827778,8.141 C6.47111111,8.2775 6.76977778,8.4035 7.07544446,8.51472223 L8.16666669,5.51638889 C7.9485,5.43705555 7.735,5.34916667 7.52655554,5.25155555 L7.52655554,5.25155555 L7.52655554,5.25155555 Z"></path>
                                        <path d="M6.32566667,4.56088889 L4.49905555,7.16877777 C4.7635,7.35427777 5.03688889,7.5285 5.31766667,7.69144446 L6.91094445,4.93266667 C6.70988889,4.816 6.51427778,4.6935 6.32566667,4.56088889 L6.32566667,4.56088889 L6.32566667,4.56088889 Z"></path>
                                        <path d="M8.82816669,5.72483333 L8.00216669,8.80561108 C8.31288892,8.88844446 8.62944446,8.95688892 8.95066669,9.01288892 L9.50405554,5.87572222 C9.27461108,5.83566667 9.04944446,5.78394445 8.82816669,5.72483333 L8.82816669,5.72483333 L8.82816669,5.72483333 Z"></path>
                                    </g>
                                    <path d="M11.5760555,5.96788889 L11.8541111,9.13927777 C12.1796111,9.11088892 12.5004445,9.0685 12.8166111,9.01288892 L12.2632222,5.87572222 C12.0372778,5.91461111 11.809,5.94766667 11.5760555,5.96788889 L11.5760555,5.96788889 L11.5760555,5.96788889 Z" id="Shape"></path>
                                </g>
                                <g id="Group" transform="translate(7.000000, 19.833333)" fill="#0053A1">
                                    <path d="M3.61277778,1.63488889 L0.854,3.22777778 C1.01655555,3.50894445 1.19077778,3.78155555 1.37627778,4.04677778 L3.98494445,2.22055555 C3.85194445,2.03194445 3.72944445,1.83555555 3.61277778,1.63488889 L3.61277778,1.63488889 L3.61277778,1.63488889 Z" id="Shape"></path>
                                    <path d="M4.40533333,2.77161111 L1.96777778,4.81677778 C2.17622222,5.06527778 2.39322222,5.30522222 2.62266667,5.53388889 L4.87122222,3.28455555 C4.70827778,3.12161111 4.55388889,2.94855555 4.40533333,2.77161111 L4.40533333,2.77161111 L4.40533333,2.77161111 Z" id="Shape"></path>
                                    <path d="M5.38533333,3.75122222 L3.33938889,6.18877778 C3.58711111,6.39722222 3.84416667,6.59361111 4.11016667,6.77988889 L5.93677778,4.172 C5.74661111,4.039 5.56188889,3.89977778 5.38533333,3.75122222 L5.38533333,3.75122222 L5.38533333,3.75122222 Z" id="Shape"></path>
                                    <path d="M3.02905555,0.379166667 L0.0303333333,1.47116667 C0.141944445,1.77683333 0.267944445,2.0755 0.404444445,2.36755555 L3.29388889,1.02044445 C3.19627778,0.810833331 3.10838889,0.597333333 3.02905555,0.379166667 L3.02905555,0.379166667 L3.02905555,0.379166667 Z" id="Shape"></path>
                                    <path d="M9.11477777,5.48683333 L8.56138892,8.624 C8.87794446,8.67961108 9.19955554,8.722 9.52388892,8.75038892 L9.80194446,5.579 C9.56977777,5.55877778 9.3415,5.52572222 9.11477777,5.48683333 L9.11477777,5.48683333 L9.11477777,5.48683333 Z" id="Shape"></path>
                                    <path d="M10.4949445,5.61438889 L10.4949445,8.79588892 C10.8223889,8.79588892 11.1451667,8.77838892 11.4652222,8.75077777 L11.1871667,5.57938889 C10.9592778,5.59883333 10.7282778,5.61438889 10.4949445,5.61438889 L10.4949445,5.61438889 L10.4949445,5.61438889 Z" id="Shape"></path>
                                    <path d="M6.52205555,4.54377778 L4.92877778,7.30255554 C5.20877778,7.46433331 5.495,7.61444446 5.789,7.75211108 L7.13727777,4.86266667 C6.9265,4.76427778 6.72155555,4.65888889 6.52205555,4.54377778 L6.52205555,4.54377778 L6.52205555,4.54377778 Z" id="Shape"></path>
                                    <path d="M7.77777777,5.1275 L6.68655555,8.12583331 C6.98911111,8.23588892 7.29866669,8.33194446 7.61327777,8.41672223 L8.43927777,5.33594445 C8.21372223,5.27566667 7.994,5.20644445 7.77777777,5.1275 L7.77777777,5.1275 L7.77777777,5.1275 Z" id="Shape"></path>
                                </g>
                                <circle id="Oval" cx="17.4949445" cy="17.4953333" r="17.4949445"></circle>
                                <ellipse id="Oval" cx="17.4945555" cy="17.4953333" rx="14.3146111" ry="14.3146111"></ellipse>
                                <circle id="Oval" cx="17.4945555" cy="17.4953333" r="11.1335"></circle>
                                <ellipse id="Oval" fill="#0053A1" cx="17.4945555" cy="17.4953333" rx="7.95277777" ry="7.95277777"></ellipse>
                                <path d="M23.1178889,11.8723889 L25.3676111,9.62266669 C25.1381667,9.39361108 24.8986111,9.17583331 24.6497222,8.96777777 L22.6049445,11.4049445 C22.7818889,11.5542778 22.9545555,11.7086667 23.1178889,11.8723889 L23.1178889,11.8723889 L23.1178889,11.8723889 Z" id="Shape" fill="#FFFFFF"></path>
                                <path d="M25.4119445,16.8027222 C25.4317778,17.031 25.4473333,17.2616111 25.4473333,17.4953333 L28.6280555,17.4953333 C28.6280555,17.1678889 28.6113333,16.8447222 28.5837222,16.5250555 L25.4119445,16.8027222 L25.4119445,16.8027222 L25.4119445,16.8027222 Z" id="Shape" fill="#FFFFFF"></path>
                                <path d="M23.5845555,12.3857222 C23.7335,12.5626667 23.8727222,12.7473889 24.0053333,12.9367778 C24.1379445,13.1253889 24.2608333,13.321 24.3759445,13.5220555 C24.4926111,13.7215555 24.598,13.9268889 24.696,14.1372778 C24.7932222,14.3461111 24.8815,14.5596111 24.9612222,14.7773889 C25.0397778,14.994 25.1093889,15.2141111 25.1688889,15.4385 C25.2283889,15.6605555 25.2801111,15.8857222 25.3205555,16.1151667 C25.3598333,16.3415 25.3925,16.5693889 25.4123333,16.8023333 L28.5841111,16.5250555 C28.5557222,16.1995555 28.5129445,15.8783333 28.4581111,15.5621667 C28.4013333,15.2409445 28.3328889,14.9243889 28.2496667,14.6132778 C28.1660555,14.2986667 28.0692222,13.9895 27.9595555,13.6865555 C27.8483333,13.3808889 27.7219445,13.0822222 27.5854445,12.7901667 C27.4477778,12.4957778 27.2968889,12.2087778 27.1355,11.9291667 C26.9733333,11.648 26.7995,11.3753889 26.6132222,11.1105555 C26.4273333,10.8453333 26.2313333,10.5875 26.0221111,10.3401667 C25.8144445,10.0920555 25.5966667,9.85172223 25.368,9.62305554 L23.1182778,11.8727778 C23.2812222,12.0357222 23.4352222,12.2083889 23.5845555,12.3857222 L23.5845555,12.3857222 L23.5845555,12.3857222 Z" id="Shape" fill="#56AF31"></path>
                                <path d="M15.5617778,6.53216667 C15.2405555,6.58855555 14.924,6.65738889 14.6132778,6.74022222 C14.2986667,6.82422222 13.9891111,6.92027778 13.6865555,7.03072223 C13.3801111,7.14155554 13.0826111,7.26755554 12.7893889,7.40444446 C12.4953889,7.54211108 12.2087778,7.69261108 11.9291667,7.85438892 C11.6476111,8.01694446 11.375,8.19116669 11.1097778,8.37705554 C10.8445555,8.56333331 10.5875,8.75933331 10.3393889,8.96816669 C10.0916667,9.17661108 9.85172223,9.394 9.62305554,9.62266669 L11.8716111,11.872 C12.0353333,11.7090555 12.2087778,11.5546667 12.3849445,11.4053333 C12.5622778,11.2567778 12.747,11.1175555 12.9371667,10.9853333 C13.1257778,10.8523333 13.3213889,10.7294445 13.5224445,10.6139445 C13.7219445,10.4984445 13.9268889,10.3922778 14.1372778,10.2942778 C14.3465,10.1966667 14.56,10.1083889 14.7777778,10.0286667 C14.9943889,9.9505 15.2141111,9.88088892 15.4388889,9.82061108 C15.6605555,9.76111108 15.8861111,9.70977777 16.1151667,9.66972223 C16.3418889,9.63044446 16.5697778,9.59738892 16.8023333,9.57716669 L16.5242778,6.40577778 C16.1995555,6.43416667 15.8783333,6.47694445 15.5617778,6.53216667 L15.5617778,6.53216667 L15.5617778,6.53216667 Z" id="Shape" fill="#56AF31"></path>
                                <path d="M25.4473333,17.4953333 C25.4473333,17.7290555 25.4317778,17.9588889 25.4119445,18.1875555 C25.3917222,18.4201111 25.3594445,18.6487778 25.3201667,18.8751111 C25.2797222,19.1041667 25.2283889,19.3297222 25.1685,19.5513889 C25.109,19.7761667 25.0393889,19.9962778 24.9608333,20.2125 C24.8807222,20.4306667 24.7928333,20.6441667 24.6956111,20.853 C24.5976111,21.0633889 24.4922222,21.2687222 24.3755555,21.4678333 C24.2604445,21.6685 24.1375555,21.8645 24.0049445,22.0535 C23.8727222,22.2428889 23.7331111,22.4276111 23.5841667,22.6041667 L26.0217222,24.6501111 C26.2301667,24.4023889 26.4269445,24.1449445 26.6128333,23.8797222 C26.7991111,23.6152778 26.9721667,23.3418889 27.1351111,23.0615 C27.2965,22.7818889 27.4477778,22.4952778 27.5850555,22.2008889 C27.7215555,21.9080555 27.8479445,21.6097778 27.9591667,21.3045 C28.0684445,21.0011667 28.1652778,20.6916111 28.2492778,20.3773889 C28.3325,20.0666667 28.4009445,19.7501111 28.4577222,19.4288889 C28.5125555,19.1123333 28.5553333,18.7907222 28.5837222,18.4656111 C28.6113333,18.1459445 28.6280555,17.8227778 28.6280555,17.4957222 L25.4473333,17.4957222 L25.4473333,17.4953333 L25.4473333,17.4953333 Z" id="Shape" fill="#56AF31"></path>
                                <path d="M19.5517778,9.82061108 C19.7753889,9.8805 19.9962778,9.9505 20.2125,10.0286667 C20.4306667,10.1083889 20.6441667,10.1962778 20.8526111,10.2942778 C21.063,10.3926667 21.2683333,10.4980555 21.4682222,10.6139445 C21.6692778,10.7294445 21.8648889,10.8523333 22.0535,10.9853333 C22.2428889,11.1175555 22.4272222,11.2571667 22.6045555,11.4053333 L24.6493333,8.96816669 C24.4027778,8.75972223 24.1449445,8.56372223 23.8789445,8.37705554 C23.6145,8.19155554 23.3418889,8.01694446 23.0611111,7.85438892 C22.7811111,7.69261108 22.4941111,7.54211108 22.1997222,7.40444446 C21.9068889,7.26794446 21.609,7.14194446 21.3037222,7.03072223 C21.0011667,6.92027778 20.6904445,6.82422222 20.3766111,6.74022222 C20.0655,6.65738889 19.7489445,6.58855555 19.4273333,6.53216667 C19.1111667,6.47694445 18.7903333,6.43416667 18.4648333,6.40577778 C18.1447778,6.37894445 17.8223889,6.36144445 17.4945555,6.36144445 L17.4945555,9.54216669 C17.7278889,9.54216669 17.9585,9.55733331 18.1863889,9.57716669 C18.4193333,9.59738892 18.648,9.63044446 18.8739445,9.66972223 C19.1037778,9.70977777 19.3293333,9.7615 19.5517778,9.82061108 L19.5517778,9.82061108 L19.5517778,9.82061108 Z" id="Shape" fill="#56AF31"></path>
                                <path d="M8.37627777,11.1101667 C8.19077777,11.375 8.01655554,11.648 7.854,11.9287778 C7.69222223,12.2083889 7.54172223,12.4953889 7.40405554,12.7897778 C7.26755554,13.0818333 7.14077777,13.3805 7.02994446,13.6861667 C6.92027778,13.9887222 6.82383333,14.2982778 6.73944445,14.6128889 C6.65622222,14.924 6.58816667,15.2409445 6.531,15.5617778 C6.47538889,15.8783333 6.43377778,16.1987778 6.40538889,16.5246667 C6.37738889,16.8443333 6.36066667,17.1671111 6.36066667,17.4949445 C6.36066667,17.822 6.37777778,18.1451667 6.40538889,18.4648333 C6.43377778,18.7903333 6.47577778,19.1111667 6.531,19.4281111 C6.58816667,19.7493333 6.65622222,20.0658889 6.73944445,20.3766111 L9.82022223,19.551 C9.76072223,19.3293333 9.70938892,19.1037778 9.66855554,18.8747222 C9.62927777,18.6483889 9.59661108,18.4201111 9.57638892,18.1871667 C9.55694446,17.9585 9.54138892,17.7282778 9.54138892,17.4949445 C9.54138892,17.2608333 9.55694446,17.0306111 9.57638892,16.8023333 C9.59661108,16.5697778 9.62927777,16.3415 9.66855554,16.1151667 C9.709,15.8857222 9.76033331,15.6605555 9.82022223,15.4385 C9.8805,15.2141111 9.94972223,14.9936111 10.0286667,14.7773889 C10.108,14.5596111 10.1958889,14.3457222 10.2931111,14.1368889 C10.3918889,13.9268889 10.4972778,13.7215555 10.6123889,13.5220555 C10.7290555,13.321 10.8515555,13.1253889 10.9849445,12.9367778 C11.1171667,12.747 11.256,12.5622778 11.4049445,12.3853333 L8.96738892,10.3397778 C8.75933331,10.5871111 8.56255554,10.8453333 8.37627777,11.1101667 L8.37627777,11.1101667 L8.37627777,11.1101667 Z" id="Shape" fill="#009FE3"></path>
                                <path d="M22.6045555,23.5845555 C22.4272222,23.7331111 22.2425,23.8719445 22.0535,24.0049445 C21.8645,24.1379445 21.6688889,24.2604445 21.4674445,24.3759445 C21.2683333,24.4918333 21.0626111,24.5972222 20.8526111,24.6956111 C20.6441667,24.7932222 20.4306667,24.8811111 20.2125,24.9600555 C19.9955,25.039 19.7753889,25.1086111 19.551,25.1685 C19.3293333,25.228 19.1037778,25.2793333 18.8743333,25.3193889 L19.4277222,28.4565555 C19.7493333,28.4005555 20.0658889,28.3321111 20.377,28.2492778 C20.6908333,28.1645 21.0007778,28.0684445 21.3029445,27.9583889 C21.6093889,27.8471667 21.9068889,27.7211667 22.2001111,27.5846667 C22.4945,27.447 22.7815,27.2965 23.0607222,27.1351111 C23.3422778,26.9721667 23.6148889,26.7979445 23.8793333,26.6124445 C24.1453333,26.4261667 24.4031667,26.2293889 24.6497222,26.0213333 C24.8982222,25.8128889 25.1381667,25.5955 25.3672222,25.3660555 L23.1182778,23.1167222 C22.9545555,23.2816111 22.7815,23.436 22.6045555,23.5845555 L22.6045555,23.5845555 L22.6045555,23.5845555 Z" id="Shape" fill="#5BC5F2"></path>
                            </g>
                        </g>
                    </g>
                </g>
            </g>
        </g>
    </g>
</svg>